#VRML V2.0 utf8


Group {
  children 
    Group {
      children 
        Group {
          children 
            Transform {
              translation 0.00072881387 0.00026199364 0.018187597
              children 
                Transform {
                  rotation 0 0 1  1.5707963
                  children 
                    Transform {
                      rotation 0 0 1  0
                      children 
                        Transform {
                          rotation 1 0 0  3.1415925
                          children 
                            Group {
                              children 
                                Transform {
                                  translation 0 0 0
                                  children 
                                    Transform {
                                      rotation 0 0 1  1.5707965
                                      children 
                                        Transform {
                                          rotation 0 0 1  0
                                          children 
                                            Transform {
                                              rotation 1 0 0  1.5707965
                                              children 
                                                Shape {
                                                  appearance 
                                                  Appearance {
                                                    material 
                                                    Material {
                                                      diffuseColor 0.5 0.5 0.5

                                                    }

                                                  }
                                                  geometry 
                                                  IndexedFaceSet {
                                                    coord 
                                                    Coordinate {
                                                      point [ -0.046383139 -0.03390526 0.05753636,
                                                          -0.03979969 -0.033963379 0.062339779,
                                                          -0.030792709 -0.035121199 0.068415403,
                                                          0.045629621 -0.0082240701 0.064177454,
                                                          0.047758691 -0.0083370795 0.063873939,
                                                          0.049591418 -0.0085186362 0.062896959,
                                                          0.051090349 -0.0087693334 0.06092149,
                                                          -0.0044312468 -0.034100048 0.078204148,
                                                          -0.0042637582 -0.032612082 0.077017538,
                                                          -0.004469275 -0.036275141 0.07930696,
                                                          -0.00059652299 -0.03450679 0.078638069,
                                                          -0.085159712 -0.050000008 -9.7885699e-005,
                                                          -0.085045688 -0.046814021 -0.00027215501,
                                                          -0.084759347 -0.049999949 -0.0097792139,
                                                          -0.084661782 -0.046646532 -0.0080444813,
                                                          -0.083260648 -0.046660479 -0.0172491,
                                                          -0.082771949 -0.049999949 -0.02041745,
                                                          -0.080881588 -0.04663872 -0.0262165,
                                                          -0.07994771 -0.04999977 -0.02983808,
                                                          -0.077159882 -0.04672223 -0.035761829,
                                                          -0.074141972 -0.046551518 -0.041162249,
                                                          -0.074224472 -0.050000358 -0.042008389,
                                                          -0.072586052 -0.046777781 -0.044315331,
                                                          -0.068294518 -0.046652671 -0.050533291,
                                                          -0.068078987 -0.049999949 -0.051236451,
                                                          -0.065155022 -0.046622209 -0.05446529,
                                                          -0.061883438 -0.050000072 -0.058673851,
                                                          -0.060900681 -0.046865221 -0.059381481,
                                                          -0.055923458 -0.046612319 -0.063853256,
                                                          -0.051851269 -0.050000541 -0.067625992,
                                                          -0.050200459 -0.046735641 -0.068552971,
                                                          -0.044380181 -0.04660761 -0.07230854,
                                                          -0.04008007 -0.05000025 -0.07516288,
                                                          -0.037775028 -0.046672702 -0.076037876,
                                                          -0.0283041 -0.046660241 -0.080004454,
                                                          -0.03000897 -0.049999949 -0.079618447,
                                                          -0.020733351 -0.049999949 -0.082585573,
                                                          -0.0189023 -0.046647958 -0.082702987,
                                                          -0.0088675022 -0.04662871 -0.084333062,
                                                          -0.007452487 -0.050000072 -0.084752142,
                                                          0.0059267869 0.04429125 -0.0095391273,
                                                          -4.7326099e-005 -0.046829991 -0.084847212,
                                                          0.0066337581 -0.046631988 -0.084456079,
                                                          0.0065202708 -0.050000131 -0.0847876,
                                                          0.0091557503 0.045497831 -0.02930521,
                                                          0.0082153082 0.046683129 -0.000248656,
                                                          0.01204222 0.049704839 -0.000339322,
                                                          0.0097031593 0.047702368 -0.0095710754,
                                                          0.01093029 0.046971139 -0.02947193,
                                                          0.01272439 -0.046616849 -0.083717518,
                                                          0.01262527 0.042742658 -0.044872161,
                                                          0.01321065 0.048668262 -0.029383119,
                                                          0.01597946 0.045141511 -0.045093529,
                                                          0.01517206 0.051544841 -0.00027292999,
                                                          0.01678413 0.052242149 -0.008948802,
                                                          0.01583874 0.0502395 -0.029510669,
                                                          0.01919096 0.053338401 -8.31e-005,
                                                          0.018947599 -0.046653681 -0.082560301,
                                                          0.018878341 0.051725078 -0.029644899,
                                                          0.017345959 -0.049999949 -0.083149493,
                                                          0.021007409 0.047759108 -0.045173939,
                                                          0.02147948 0.053921461 -0.01099747,
                                                          0.023255819 0.053297691 -0.02967375,
                                                          0.024218971 0.055027898 -0.0002786,
                                                          0.02667254 0.049514409 -0.045164458,
                                                          0.02709865 -0.049999949 -0.080576889,
                                                          0.02640998 0.055197168 -0.01288795,
                                                          0.027975081 -0.046671681 -0.079948418,
                                                          0.02814674 0.054322239 -0.029836951,
                                                          0.028794641 0.055700179 -6.7625202e-005,
                                                          0.031393819 0.054627649 -0.029877,
                                                          0.03538131 -0.04661059 -0.07686805,
                                                          0.032182209 0.050062232 -0.045261849,
                                                          0.033225171 0.05583274 -0.01119995,
                                                          0.034395508 0.055964168 -0.000263155,
                                                          0.035754319 0.055666801 -1.12019e-005,
                                                          0.034633391 0.054639868 -0.02986305,
                                                          0.037626199 0.054422248 -0.029874681,
                                                          0.03681099 -0.049999949 -0.076482467,
                                                          0.0401203 0.055290401 -0.00030004999,
                                                          0.041286461 -0.046772711 -0.073945038,
                                                          0.04222285 0.053526629 -0.029966529,
                                                          0.043235239 0.05433559 -0.01199436,
                                                          0.046617199 0.053061601 -9.3318504e-006,
                                                          0.045647621 -0.049999051 -0.071614258,
                                                          0.045468859 0.047439869 -0.045079581,
                                                          0.04679298 -0.046633001 -0.07045269,
                                                          0.045646012 0.05368429 -0.000369132,
                                                          0.046287172 0.052202221 -0.02999514,
                                                          0.050521731 0.050179832 -0.030009501,
                                                          0.049504161 0.051863011 -0.01231384,
                                                          0.052971829 -0.04665136 -0.065982811,
                                                          0.0494163 0.052025069 -0.00031405699,
                                                          0.053842962 0.04804188 -0.03014278,
                                                          0.05563622 0.047796179 -1.45286e-005,
                                                          0.053435922 0.049672179 -0.00027418099,
                                                          0.053346749 0.042322271 -0.044989459,
                                                          0.054867622 0.04782211 -0.025485991,
                                                          0.055601411 0.047973149 -0.01219838,
                                                          0.056267731 -0.05000025 -0.063592911,
                                                          0.057196081 0.045377068 -0.03004705,
                                                          0.056534581 0.03902024 -0.044991489,
                                                          0.056024838 0.047654029 -0.01054859,
                                                          0.056205031 0.047424428 -0.01368486,
                                                          0.05830162 0.045777611 -0.00029154099,
                                                          0.057281669 0.046597421 -0.0099644056,
                                                          0.057768099 0.04605436 -0.01391965,
                                                          0.058936048 0.03579998 -0.044854809,
                                                          0.05838149 0.045571141 -0.01071941,
                                                          0.060076289 0.042458169 -0.030030601,
                                                          0.060715672 -0.046641052 -0.058886521,
                                                          0.05860775 0.04530799 -0.01237523,
                                                          0.059948981 0.0436024 -0.021485319,
                                                          0.061582621 0.030647511 -0.044908941,
                                                          0.06156677 0.04209172 -0.000107147,
                                                          0.06233912 0.039562762 -0.03006243,
                                                          0.065509968 0.034235891 -0.02997303,
                                                          0.063120723 0.02581965 -0.044766899,
                                                          0.063292742 0.03962671 -0.01756477,
                                                          0.065320313 0.03635728 -7.9449303e-005,
                                                          0.0638346 0.037299149 -0.03000175,
                                                          0.064067237 0.038669098 -0.00026714799,
                                                          0.065584183 -0.050000131 -0.053846352,
                                                          0.06730371 0.02962696 -0.03002917,
                                                          0.06577944 0.035358131 -0.02005863,
                                                          0.066808701 -0.046663221 -0.051848412,
                                                          0.067330591 0.032152768 -0.00030033299,
                                                          0.068170838 0.02937316 -0.01913118,
                                                          0.068316869 0.025699129 -0.0299617,
                                                          0.068706572 0.02774637 -0.000527978,
                                                          0.071494102 -0.0466277 -0.04504966,
                                                          0.074569702 -0.046789099 -0.039967529,
                                                          0.072055988 -0.049999949 -0.044660442,
                                                          0.07841634 -0.046617258 -0.03150367,
                                                          0.076937191 -0.049999408 -0.03573703,
                                                          0.076570742 0.00031613 -0.0041266079,
                                                          0.076166861 0.000238031 -0.0018612141,
                                                          0.076479249 1.86861e-005 -0.0054211612,
                                                          0.076678567 -4.2919099e-005 -0.003383338,
                                                          0.07646399 -0.059999999 -0.01225149,
                                                          0.08167135 -0.046665542 -0.02187728,
                                                          0.081578612 -0.050000131 -0.02328681,
                                                          0.083580188 -0.046633951 -0.01245212,
                                                          0.083741002 -0.049999949 -0.01297545,
                                                          0.08429306 -0.046667811 -0.005742549,
                                                          0.084489763 -0.046672761 -0.00035564601,
                                                          0.084414832 -0.060000122 -0.01291269,
                                                          0.08515083 -0.059999939 -8.5864202e-005,
                                                          -0.085146539 -0.050000008 0.0011277189,
                                                          -0.085037939 -0.046867311 0.001244425,
                                                          -0.084714167 -0.050000008 0.01023006,
                                                          -0.084634602 -0.046680272 0.0084652901,
                                                          -0.08325994 -0.04662418 0.017158501,
                                                          -0.08217334 -0.049999889 0.023012631,
                                                          -0.080886841 -0.046695109 0.02628326,
                                                          -0.076398127 -0.049999349 0.038181782,
                                                          -0.077873699 -0.04660707 0.03403854,
                                                          -0.076849692 -0.03383952 0.01741313,
                                                          -0.075629048 -0.03165447 0.01458168,
                                                          -0.075043909 -0.034623981 0.0255928,
                                                          -0.074689858 -0.04664731 0.040550228,
                                                          -0.07375025 -0.031634212 0.02170944,
                                                          -0.071439259 -0.034866571 0.03442001,
                                                          -0.071354032 -0.031985398 0.028983111,
                                                          -0.070972443 -0.046639849 0.046762459,
                                                          -0.070041768 -0.037540309 0.039350498,
                                                          -0.067452431 -0.04999923 0.052161209,
                                                          -0.067811839 -0.032411691 0.036471359,
                                                          -0.068762422 -0.035170309 0.039132889,
                                                          -0.067891002 -0.03344696 0.03827852,
                                                          -0.067253113 -0.046616308 0.051867001,
                                                          -0.063076973 -0.046655349 0.05693721,
                                                          -0.058979031 -0.050000131 0.061583512,
                                                          -0.056350701 -0.046639849 0.063557617,
                                                          -0.046222679 -0.04999917 0.071712486,
                                                          -0.049363129 -0.04668086 0.069153778,
                                                          -0.04325103 -0.04664975 0.073040001,
                                                          -0.03751659 -0.046636868 0.076136582,
                                                          -0.031365391 -0.050000131 0.07917165,
                                                          -0.029580111 -0.046656899 0.079555511,
                                                          -0.01647543 -0.049999829 0.083609037,
                                                          -0.022551529 -0.046617199 0.081757538,
                                                          -0.01607131 -0.046806391 0.083350301,
                                                          -0.01014685 -0.046619169 0.08416152,
                                                          -0.0049276352 -0.046632279 0.084605627,
                                                          0.00013181601 -0.049999651 0.085044138,
                                                          0.00045563301 -0.046635799 0.084752321,
                                                          0.0073547359 -0.046617322 0.084432237,
                                                          0.01346206 -0.050000131 0.083949499,
                                                          0.01544666 -0.046770569 0.083357573,
                                                          0.021563521 -0.046625368 0.081890821,
                                                          0.02625465 -0.049999651 0.080827229,
                                                          0.033091541 -0.046611719 0.077908032,
                                                          0.02856254 -0.046771519 0.07977771,
                                                          0.03807544 -0.050000131 0.075960629,
                                                          0.040987011 -0.04664379 0.074059479,
                                                          0.05187463 -0.04999923 0.067355148,
                                                          0.046396252 -0.046669301 0.070764542,
                                                          0.05567741 -0.04687494 0.063808441,
                                                          0.060173031 -0.046663761 0.059446331,
                                                          0.064363472 -0.046625908 0.05480957,
                                                          0.063849442 -0.050000131 0.055896752,
                                                          0.068208687 -0.046796259 0.050075531,
                                                          0.072619431 -0.046615832 0.04329776,
                                                          0.073060513 -0.04999971 0.04331588,
                                                          0.075688832 -0.046625849 0.037578579,
                                                          0.076616459 -0.059999879 0.01226603,
                                                          0.078133583 -0.046634909 0.032155991,
                                                          0.080035917 -0.050000072 0.028059,
                                                          0.080315113 -0.046679609 0.02639579,
                                                          0.082697392 -0.046664588 0.01746273,
                                                          0.083804958 -0.04999977 0.01301431,
                                                          0.083577633 -0.04661005 0.01228785,
                                                          0.084279232 -0.046709649 0.006314754,
                                                          0.084420972 -0.059999939 0.01291888,
                                                          0.08452528 -0.04682821 0.001315057,
                                                          0.085133366 -0.059999939 0.001120388,
                                                          -0.079588532 -0.033427771 6.2641602e-006,
                                                          -0.079129986 -0.03327661 -0.0067605972,
                                                          -0.077937119 -0.032845851 -0.01211643,
                                                          -0.076282971 -0.032225478 -0.01662063,
                                                          -0.074527264 -0.031574842 -0.020038599,
                                                          -0.072122566 -0.030562401 -0.023488039,
                                                          -0.068770401 -0.02904796 -0.027153959,
                                                          -0.064528458 -0.02701091 -0.030638689,
                                                          0.009705185 0.039739009 -0.045282181,
                                                          0.01128339 0.041355599 -0.045273948,
                                                          0.0127722 0.042715371 -0.045330521,
                                                          0.01469057 0.044209588 -0.045362771,
                                                          0.016415231 0.050546639 -0.02941888,
                                                          0.0193535 0.047037952 -0.045459442,
                                                          0.01972913 0.052053209 -0.029489569,
                                                          0.024939001 0.049074411 -0.045534778,
                                                          0.02712917 0.054167029 -0.029656351,
                                                          0.028938649 0.049758069 -0.045548201,
                                                          0.03258675 0.049997799 -0.045543309,
                                                          0.036102772 0.054549869 -0.029823121,
                                                          0.03754377 0.049654718 -0.045565002,
                                                          0.042787369 0.053369582 -0.02990561,
                                                          0.041985858 0.048593339 -0.045539431,
                                                          0.04452353 0.04767495 -0.04551601,
                                                          0.04713577 0.046497159 -0.045493718,
                                                          0.047940731 0.05144798 -0.029935179,
                                                          0.047695991 0.046151988 -0.045476489,
                                                          0.050675329 0.044333149 -0.04544073,
                                                          0.051057272 0.04985803 -0.029947991,
                                                          0.054290999 0.041274659 -0.045352042,
                                                          0.055358458 0.046962969 -0.029954011,
                                                          0.058611032 0.036096029 -0.045219239,
                                                          0.059892349 0.042693011 -0.02992367,
                                                          0.063384473 0.038100298 -0.02989953,
                                                          0.0608465 0.032199621 -0.045237601,
                                                          0.062265091 0.028378781 -0.045175251,
                                                          0.063095212 0.025259789 -0.045153491,
                                                          0.065959208 0.03321087 -0.029878249,
                                                          0.06329798 0.02420699 -0.045159452,
                                                          0.06357228 0.02220034 -0.045153432,
                                                          0.06718462 0.02996379 -0.029866209,
                                                          0.068102531 0.02667057 -0.029872229 ]

                                                    }
                                                    normal 
                                                    Normal {
                                                      vector [  ]

                                                    }
                                                    coordIndex [ 9, 10, 7, -1, 112, 106, 111, -1,
                                                        111, 108, 104, -1, 104, 108, 105, -1,
                                                        104, 105, 102, -1, 47, 48, 44, -1,
                                                        47, 51, 48, -1, 100, 97, 112, -1,
                                                        120, 124, 116, -1, 127, 126, 129, -1,
                                                        126, 127, 124, -1, 126, 124, 119, -1,
                                                        121, 118, 114, -1, 102, 98, 95, -1,
                                                        102, 95, 104, -1, 90, 95, 98, -1,
                                                        87, 92, 90, -1, 90, 92, 95, -1,
                                                        87, 90, 82, -1, 87, 82, 79, -1,
                                                        73, 74, 79, -1, 69, 74, 73, -1,
                                                        69, 73, 66, -1, 66, 63, 69, -1,
                                                        54, 56, 61, -1, 61, 56, 63, -1,
                                                        54, 53, 56, -1, 46, 53, 54, -1,
                                                        46, 47, 45, -1, 45, 47, 40, -1,
                                                        103, 97, 98, -1, 98, 97, 90, -1,
                                                        90, 88, 82, -1, 82, 81, 77, -1,
                                                        73, 76, 70, -1, 73, 70, 66, -1,
                                                        66, 70, 68, -1, 61, 66, 62, -1,
                                                        54, 55, 51, -1, 40, 47, 44, -1,
                                                        109, 112, 115, -1, 115, 112, 118, -1,
                                                        114, 118, 112, -1, 79, 82, 77, -1,
                                                        79, 77, 73, -1, 63, 66, 61, -1,
                                                        101, 109, 115, -1, 13, 14, 15, -1,
                                                        13, 15, 16, -1, 16, 15, 17, -1,
                                                        16, 17, 18, -1, 17, 19, 18, -1,
                                                        18, 19, 21, -1, 21, 19, 22, -1,
                                                        21, 22, 24, -1, 22, 23, 24, -1,
                                                        25, 27, 26, -1, 28, 30, 29, -1,
                                                        31, 33, 32, -1, 32, 33, 35, -1,
                                                        33, 34, 35, -1, 35, 34, 36, -1,
                                                        36, 34, 37, -1, 36, 37, 39, -1,
                                                        39, 37, 38, -1, 39, 38, 41, -1,
                                                        39, 41, 43, -1, 43, 41, 42, -1,
                                                        43, 42, 49, -1, 43, 49, 59, -1,
                                                        49, 57, 59, -1, 59, 57, 65, -1,
                                                        57, 67, 65, -1, 65, 67, 71, -1,
                                                        65, 71, 78, -1, 78, 71, 80, -1,
                                                        78, 80, 84, -1, 80, 86, 84, -1,
                                                        84, 86, 91, -1, 84, 91, 99, -1,
                                                        99, 110, 122, -1, 122, 125, 132, -1,
                                                        132, 125, 130, -1, 130, 131, 132, -1,
                                                        132, 131, 134, -1, 134, 133, 141, -1,
                                                        133, 140, 141, -1, 143, 140, 142, -1,
                                                        145, 147, 144, -1, 144, 147, 146, -1,
                                                        20, 22, 19, -1, 79, 74, 75, -1,
                                                        87, 79, 83, -1, 92, 87, 83, -1,
                                                        104, 95, 94, -1, 149, 148, 150, -1,
                                                        209, 208, 210, -1, 208, 209, 207, -1,
                                                        204, 205, 203, -1, 203, 202, 204, -1,
                                                        204, 202, 201, -1, 202, 200, 201, -1,
                                                        200, 199, 201, -1, 196, 197, 194, -1,
                                                        194, 197, 195, -1, 195, 192, 194, -1,
                                                        193, 190, 191, -1, 191, 190, 188, -1,
                                                        188, 190, 189, -1, 189, 187, 188, -1,
                                                        188, 187, 185, -1, 185, 187, 186, -1,
                                                        185, 186, 184, -1, 180, 183, 182, -1,
                                                        182, 181, 180, -1, 180, 181, 178, -1,
                                                        178, 181, 179, -1, 178, 179, 177, -1,
                                                        178, 177, 174, -1, 177, 176, 174, -1,
                                                        176, 175, 174, -1, 174, 175, 172, -1,
                                                        172, 175, 173, -1, 173, 171, 172, -1,
                                                        172, 171, 166, -1, 166, 171, 170, -1,
                                                        170, 164, 166, -1, 166, 164, 155, -1,
                                                        164, 160, 155, -1, 155, 160, 156, -1,
                                                        155, 156, 154, -1, 155, 154, 153, -1,
                                                        154, 152, 153, -1, 153, 152, 150, -1,
                                                        152, 151, 150, -1, 151, 149, 150, -1,
                                                        210, 211, 212, -1, 162, 169, 167, -1,
                                                        162, 168, 169, -1, 162, 165, 168, -1,
                                                        163, 162, 167, -1, 159, 162, 163, -1,
                                                        161, 159, 163, -1, 157, 159, 161, -1,
                                                        158, 157, 161, -1, 89, 93, 244, -1,
                                                        76, 236, 237, -1, 96, 246, 244, -1,
                                                        186, 10, 9, -1, 215, 216, 147, -1,
                                                        101, 248, 246, -1, 245, 93, 89, -1,
                                                        248, 251, 71, -1, 251, 80, 71, -1,
                                                        256, 255, 133, -1, 115, 250, 248, -1,
                                                        128, 137, 142, -1, 106, 103, 105, -1,
                                                        258, 135, 128, -1, 135, 137, 128, -1,
                                                        255, 253, 128, -1, 67, 57, 244, -1,
                                                        138, 215, 145, -1, 258, 127, 135, -1,
                                                        127, 129, 135, -1, 129, 138, 135, -1,
                                                        129, 136, 138, -1, 76, 235, 72, -1,
                                                        210, 212, 138, -1, 212, 213, 138, -1,
                                                        213, 215, 138, -1, 96, 247, 100, -1,
                                                        251, 252, 80, -1, 252, 86, 80, -1,
                                                        252, 253, 86, -1, 253, 91, 86, -1,
                                                        253, 255, 91, -1, 131, 130, 256, -1,
                                                        130, 125, 256, -1, 31, 227, 33, -1,
                                                        213, 211, 214, -1, 211, 210, 214, -1,
                                                        210, 208, 214, -1, 208, 204, 214, -1,
                                                        204, 201, 214, -1, 201, 196, 214, -1,
                                                        196, 194, 214, -1, 194, 191, 214, -1,
                                                        191, 188, 214, -1, 188, 185, 214, -1,
                                                        184, 183, 185, -1, 183, 180, 185, -1,
                                                        151, 217, 149, -1, 217, 12, 149, -1,
                                                        11, 13, 139, -1, 128, 140, 133, -1,
                                                        118, 121, 119, -1, 232, 234, 38, -1,
                                                        6, 5, 200, -1, 20, 222, 22, -1,
                                                        222, 223, 22, -1, 124, 120, 250, -1,
                                                        224, 225, 23, -1, 225, 25, 23, -1,
                                                        225, 27, 25, -1, 225, 226, 27, -1,
                                                        226, 28, 27, -1, 226, 30, 28, -1,
                                                        226, 227, 30, -1, 227, 31, 30, -1,
                                                        226, 50, 227, -1, 50, 44, 227, -1,
                                                        123, 258, 117, -1, 45, 169, 46, -1,
                                                        169, 0, 46, -1, 0, 53, 46, -1,
                                                        0, 1, 53, -1, 1, 2, 53, -1,
                                                        221, 19, 17, -1, 85, 240, 88, -1,
                                                        179, 181, 7, -1, 181, 182, 7, -1,
                                                        182, 183, 7, -1, 183, 9, 7, -1,
                                                        14, 13, 11, -1, 64, 232, 233, -1,
                                                        196, 198, 5, -1, 198, 199, 5, -1,
                                                        199, 200, 5, -1, 6, 121, 5, -1,
                                                        121, 114, 5, -1, 114, 104, 5, -1,
                                                        104, 94, 5, -1, 94, 95, 5, -1,
                                                        197, 196, 5, -1, 191, 194, 193, -1,
                                                        194, 192, 193, -1, 102, 105, 98, -1,
                                                        105, 103, 98, -1, 234, 235, 41, -1,
                                                        100, 247, 97, -1, 247, 93, 97, -1,
                                                        93, 245, 97, -1, 159, 154, 156, -1,
                                                        250, 120, 248, -1, 120, 107, 248, -1,
                                                        107, 251, 248, -1, 112, 249, 100, -1,
                                                        249, 109, 100, -1, 249, 112, 109, -1,
                                                        72, 234, 68, -1, 210, 138, 136, -1,
                                                        235, 237, 41, -1, 48, 228, 227, -1,
                                                        7, 8, 2, -1, 113, 252, 251, -1,
                                                        2, 1, 176, -1, 123, 127, 258, -1,
                                                        252, 117, 253, -1, 232, 64, 234, -1,
                                                        64, 68, 234, -1, 123, 257, 127, -1,
                                                        157, 152, 154, -1, 219, 15, 14, -1,
                                                        72, 235, 234, -1, 248, 71, 67, -1,
                                                        117, 258, 128, -1, 126, 209, 129, -1,
                                                        209, 136, 129, -1, 113, 254, 123, -1,
                                                        126, 207, 209, -1, 236, 77, 237, -1,
                                                        3, 4, 79, -1, 211, 213, 212, -1,
                                                        113, 251, 116, -1, 205, 204, 208, -1,
                                                        4, 195, 197, -1, 207, 205, 208, -1,
                                                        59, 146, 43, -1, 146, 39, 43, -1,
                                                        198, 196, 201, -1, 146, 139, 39, -1,
                                                        139, 36, 39, -1, 199, 198, 201, -1,
                                                        230, 60, 232, -1, 9, 183, 184, -1,
                                                        81, 239, 237, -1, 2, 177, 179, -1,
                                                        124, 127, 257, -1, 62, 233, 232, -1,
                                                        40, 218, 217, -1, 57, 49, 240, -1,
                                                        37, 230, 232, -1, 0, 173, 175, -1,
                                                        233, 66, 68, -1, 0, 169, 173, -1,
                                                        169, 171, 173, -1, 169, 168, 171, -1,
                                                        168, 170, 171, -1, 73, 236, 76, -1,
                                                        168, 164, 170, -1, 73, 77, 236, -1,
                                                        168, 165, 164, -1, 165, 162, 164, -1,
                                                        162, 160, 164, -1, 162, 156, 160, -1,
                                                        82, 238, 81, -1, 144, 142, 137, -1,
                                                        238, 239, 81, -1, 120, 116, 251, -1,
                                                        101, 246, 100, -1, 224, 23, 22, -1,
                                                        213, 214, 216, -1, 157, 158, 217, -1,
                                                        158, 45, 217, -1, 61, 58, 229, -1,
                                                        65, 146, 59, -1, 141, 140, 146, -1,
                                                        220, 17, 15, -1, 140, 143, 146, -1,
                                                        143, 144, 146, -1, 44, 220, 219, -1,
                                                        44, 221, 220, -1, 147, 216, 214, -1,
                                                        44, 222, 221, -1, 147, 214, 206, -1,
                                                        44, 226, 222, -1, 147, 206, 139, -1,
                                                        226, 223, 222, -1, 147, 139, 146, -1,
                                                        226, 225, 223, -1, 65, 78, 146, -1,
                                                        225, 224, 223, -1, 78, 84, 146, -1,
                                                        44, 50, 226, -1, 84, 99, 146, -1,
                                                        158, 161, 45, -1, 99, 122, 146, -1,
                                                        161, 163, 45, -1, 122, 132, 146, -1,
                                                        163, 167, 45, -1, 132, 134, 146, -1,
                                                        167, 169, 45, -1, 134, 141, 146, -1,
                                                        139, 35, 36, -1, 203, 6, 202, -1,
                                                        203, 205, 6, -1, 34, 230, 37, -1,
                                                        205, 126, 6, -1, 149, 12, 11, -1,
                                                        126, 119, 6, -1, 119, 121, 6, -1,
                                                        13, 16, 139, -1, 157, 217, 151, -1,
                                                        16, 18, 139, -1, 18, 21, 139, -1,
                                                        21, 24, 139, -1, 24, 26, 139, -1,
                                                        112, 111, 114, -1, 26, 29, 139, -1,
                                                        111, 104, 114, -1, 29, 32, 139, -1,
                                                        32, 35, 139, -1, 228, 52, 230, -1,
                                                        85, 242, 89, -1, 49, 42, 239, -1,
                                                        58, 60, 230, -1, 108, 111, 106, -1,
                                                        34, 228, 230, -1, 55, 229, 58, -1,
                                                        1, 0, 175, -1, 118, 250, 115, -1,
                                                        95, 92, 4, -1, 61, 231, 58, -1,
                                                        231, 62, 58, -1, 66, 233, 62, -1,
                                                        124, 254, 116, -1, 231, 61, 62, -1,
                                                        257, 123, 254, -1, 205, 207, 126, -1,
                                                        55, 58, 230, -1, 4, 83, 79, -1,
                                                        88, 238, 82, -1, 219, 218, 40, -1,
                                                        90, 242, 88, -1, 85, 241, 240, -1,
                                                        241, 244, 57, -1, 3, 63, 56, -1,
                                                        52, 228, 48, -1, 89, 243, 241, -1,
                                                        243, 244, 241, -1, 128, 142, 140, -1,
                                                        142, 144, 143, -1, 42, 41, 237, -1,
                                                        62, 232, 60, -1, 91, 255, 99, -1,
                                                        255, 110, 99, -1, 110, 255, 122, -1,
                                                        255, 256, 122, -1, 256, 125, 122, -1,
                                                        131, 256, 134, -1, 256, 133, 134, -1,
                                                        33, 228, 34, -1, 214, 185, 206, -1,
                                                        185, 180, 206, -1, 180, 178, 206, -1,
                                                        178, 174, 206, -1, 174, 172, 206, -1,
                                                        172, 166, 206, -1, 166, 155, 206, -1,
                                                        155, 153, 206, -1, 153, 150, 206, -1,
                                                        150, 148, 206, -1, 148, 11, 206, -1,
                                                        88, 240, 239, -1, 138, 145, 144, -1,
                                                        23, 25, 24, -1, 25, 26, 24, -1,
                                                        27, 28, 26, -1, 28, 29, 26, -1,
                                                        30, 31, 29, -1, 31, 32, 29, -1,
                                                        96, 244, 93, -1, 33, 227, 228, -1,
                                                        51, 55, 52, -1, 54, 229, 55, -1,
                                                        51, 47, 54, -1, 47, 46, 54, -1,
                                                        8, 56, 53, -1, 3, 69, 63, -1,
                                                        3, 74, 69, -1, 3, 75, 74, -1,
                                                        8, 7, 3, -1, 7, 10, 3, -1,
                                                        10, 186, 3, -1, 186, 187, 3, -1,
                                                        187, 189, 3, -1, 189, 4, 3, -1,
                                                        112, 97, 103, -1, 92, 83, 4, -1,
                                                        189, 190, 4, -1, 190, 193, 4, -1,
                                                        193, 192, 4, -1, 192, 195, 4, -1,
                                                        97, 245, 90, -1, 245, 89, 90, -1,
                                                        89, 242, 90, -1, 222, 20, 19, -1,
                                                        218, 14, 12, -1, 243, 89, 244, -1,
                                                        235, 76, 237, -1, 184, 186, 9, -1,
                                                        145, 215, 147, -1, 101, 115, 248, -1,
                                                        108, 106, 105, -1, 246, 67, 244, -1,
                                                        70, 76, 72, -1, 246, 96, 100, -1,
                                                        206, 11, 139, -1, 255, 128, 133, -1,
                                                        124, 118, 119, -1, 37, 232, 38, -1,
                                                        202, 6, 200, -1, 118, 124, 250, -1,
                                                        252, 123, 117, -1, 220, 221, 17, -1,
                                                        242, 85, 88, -1, 12, 14, 11, -1,
                                                        68, 64, 233, -1, 38, 234, 41, -1,
                                                        162, 159, 156, -1, 70, 72, 68, -1,
                                                        209, 210, 136, -1, 44, 48, 227, -1,
                                                        179, 7, 2, -1, 177, 2, 176, -1,
                                                        159, 157, 154, -1, 218, 219, 14, -1,
                                                        246, 248, 67, -1, 253, 117, 128, -1,
                                                        252, 113, 123, -1, 75, 3, 79, -1,
                                                        254, 113, 116, -1, 5, 4, 197, -1,
                                                        77, 81, 237, -1, 254, 124, 257, -1,
                                                        45, 40, 217, -1, 241, 57, 240, -1,
                                                        135, 144, 137, -1, 107, 120, 251, -1,
                                                        109, 101, 100, -1, 223, 224, 22, -1,
                                                        215, 213, 216, -1, 54, 61, 229, -1,
                                                        219, 220, 15, -1, 148, 149, 11, -1,
                                                        152, 157, 151, -1, 241, 85, 89, -1,
                                                        240, 49, 239, -1, 176, 1, 175, -1,
                                                        5, 95, 4, -1, 52, 55, 230, -1,
                                                        44, 219, 40, -1, 8, 3, 56, -1,
                                                        51, 52, 48, -1, 239, 42, 237, -1,
                                                        58, 62, 60, -1, 238, 88, 239, -1,
                                                        135, 138, 144, -1, 247, 96, 93, -1,
                                                        2, 8, 53, -1, 106, 112, 103, -1,
                                                        221, 222, 19, -1, 217, 218, 12 ]
                                                    ccw TRUE
                                                    solid FALSE
                                                    convex TRUE
                                                    creaseAngle 0

                                                  }

                                                }

                                            }

                                        }

                                    }

                                }

                            }

                        }

                    }

                }

            }

        }

    }

}
